…
### Filtering data

Often, the PSM data is filtered to only retain reliable matches. The
`MSnID` package can be used to set thresholds to attain user-defined
PSM, peptide or protein-level FDRs. Here, we will simply filter out
wrong identification manually.

Here, the `filter()` from the `dplyr` package comes very handy. We will
thus start by converting the `DataFrame` to a `tibble`.

    library("dplyr")
    id_tbl <- tidyr::as_tibble(id)
    id_tbl

    ## # A tibble: 5,802 × 35
    ##    sequence spectrumID chargeState  rank passThreshold experimentalMas… calculatedMassT… peptideRef modNum isDecoy
    ##    <chr>    <chr>            <int> <int> <lgl>                    <dbl>            <dbl> <chr>       <int> <lgl>  
    ##  1 RQCRTDF… controlle…           3     1 TRUE                      548.             548. Pep77           1 FALSE  
    ##  2 ESVALAD… controlle…           2     1 TRUE                     1288.            1288. Pep108          1 FALSE  
    ##  3 KELLCLA… controlle…           2     1 TRUE                      744.             744. Pep136          1 TRUE   
    ##  4 QRMARTS… controlle…           3     1 TRUE                      913.             913. Pep163          1 FALSE  
    ##  5 KDEGSTE… controlle…           3     1 TRUE                      927.             926. Pep169          1 TRUE   
    ##  6 DGGPAIY… controlle…           3     1 TRUE                      969.             969. Pep206          1 FALSE  
    ##  7 QRMARTS… controlle…           2     1 TRUE                     1369.            1369. Pep163          1 FALSE  
    ##  8 CIDRARH… controlle…           3     1 TRUE                     1285.            1285. Pep216          2 FALSE  
    ##  9 CIDRARH… controlle…           3     1 TRUE                     1285.            1285. Pep216          2 FALSE  
    ## 10 VGRCRPI… controlle…           2     1 TRUE                     1102.            1102. Pep223          1 FALSE  
    ## # … with 5,792 more rows, and 25 more variables: post <chr>, pre <chr>, start <int>, end <int>,
    ## #   DatabaseAccess <chr>, DBseqLength <int>, DatabaseSeq <chr>, DatabaseDescription <chr>, scan.number.s. <dbl>,
    ## #   acquisitionNum <dbl>, spectrumFile <chr>, idFile <chr>, MS.GF.RawScore <dbl>, MS.GF.DeNovoScore <dbl>,
    ## #   MS.GF.SpecEValue <dbl>, MS.GF.EValue <dbl>, MS.GF.QValue <dbl>, MS.GF.PepQValue <dbl>, modPeptideRef <chr>,
    ## #   modName <chr>, modMass <dbl>, modLocation <int>, subOriginalResidue <chr>, subReplacementResidue <chr>,
    ## #   subLocation <int>

<p class='question-begin'>&#x25BA; Question</p>

-   Remove decoy hits

<p class="question-end"><span class="fa fa-square-o solution-icon"></span></p>

<p class="solution-begin">&#x25BA; Solution<span id='sol-start-10' class="fa fa-plus-square solution-icon clickable" onclick="toggle_visibility('sol-body-10', 'sol-start-10')"></span></p>

    id_tbl <- id_tbl %>%
        filter(!isDecoy)
    id_tbl

    ## # A tibble: 2,906 × 35
    ##    sequence spectrumID chargeState  rank passThreshold experimentalMas… calculatedMassT… peptideRef modNum isDecoy
    ##    <chr>    <chr>            <int> <int> <lgl>                    <dbl>            <dbl> <chr>       <int> <lgl>  
    ##  1 RQCRTDF… controlle…           3     1 TRUE                      548.             548. Pep77           1 FALSE  
    ##  2 ESVALAD… controlle…           2     1 TRUE                     1288.            1288. Pep108          1 FALSE  
    ##  3 QRMARTS… controlle…           3     1 TRUE                      913.             913. Pep163          1 FALSE  
    ##  4 DGGPAIY… controlle…           3     1 TRUE                      969.             969. Pep206          1 FALSE  
    ##  5 QRMARTS… controlle…           2     1 TRUE                     1369.            1369. Pep163          1 FALSE  
    ##  6 CIDRARH… controlle…           3     1 TRUE                     1285.            1285. Pep216          2 FALSE  
    ##  7 CIDRARH… controlle…           3     1 TRUE                     1285.            1285. Pep216          2 FALSE  
    ##  8 VGRCRPI… controlle…           2     1 TRUE                     1102.            1102. Pep223          1 FALSE  
    ##  9 QRLDEHC… controlle…           3     1 TRUE                      713.             712. Pep319          1 FALSE  
    ## 10 VDYQGKK… controlle…           4     1 TRUE                      870.             870. Pep321          1 FALSE  
    ## # … with 2,896 more rows, and 25 more variables: post <chr>, pre <chr>, start <int>, end <int>,
    ## #   DatabaseAccess <chr>, DBseqLength <int>, DatabaseSeq <chr>, DatabaseDescription <chr>, scan.number.s. <dbl>,
    ## #   acquisitionNum <dbl>, spectrumFile <chr>, idFile <chr>, MS.GF.RawScore <dbl>, MS.GF.DeNovoScore <dbl>,
    ## #   MS.GF.SpecEValue <dbl>, MS.GF.EValue <dbl>, MS.GF.QValue <dbl>, MS.GF.PepQValue <dbl>, modPeptideRef <chr>,
    ## #   modName <chr>, modMass <dbl>, modLocation <int>, subOriginalResidue <chr>, subReplacementResidue <chr>,
    ## #   subLocation <int>
<p class="solution-end"><span class="fa fa-square-o solution-icon"></span></p>

<p class='question-begin'>&#x25BA; Question</p>

-   Keep first rank matches

<p class="question-end"><span class="fa fa-square-o solution-icon"></span></p>

<p class="solution-begin">&#x25BA; Solution<span id='sol-start-11' class="fa fa-plus-square solution-icon clickable" onclick="toggle_visibility('sol-body-11', 'sol-start-11')"></span></p>

    id_tbl <- id_tbl %>%
        filter(rank == 1)
    id_tbl

    ## # A tibble: 2,751 × 35
    ##    sequence spectrumID chargeState  rank passThreshold experimentalMas… calculatedMassT… peptideRef modNum isDecoy
    ##    <chr>    <chr>            <int> <int> <lgl>                    <dbl>            <dbl> <chr>       <int> <lgl>  
    ##  1 RQCRTDF… controlle…           3     1 TRUE                      548.             548. Pep77           1 FALSE  
    ##  2 ESVALAD… controlle…           2     1 TRUE                     1288.            1288. Pep108          1 FALSE  
    ##  3 QRMARTS… controlle…           3     1 TRUE                      913.             913. Pep163          1 FALSE  
    ##  4 DGGPAIY… controlle…           3     1 TRUE                      969.             969. Pep206          1 FALSE  
    ##  5 QRMARTS… controlle…           2     1 TRUE                     1369.            1369. Pep163          1 FALSE  
    ##  6 CIDRARH… controlle…           3     1 TRUE                     1285.            1285. Pep216          2 FALSE  
    ##  7 CIDRARH… controlle…           3     1 TRUE                     1285.            1285. Pep216          2 FALSE  
    ##  8 VGRCRPI… controlle…           2     1 TRUE                     1102.            1102. Pep223          1 FALSE  
    ##  9 QRLDEHC… controlle…           3     1 TRUE                      713.             712. Pep319          1 FALSE  
    ## 10 VDYQGKK… controlle…           4     1 TRUE                      870.             870. Pep321          1 FALSE  
    ## # … with 2,741 more rows, and 25 more variables: post <chr>, pre <chr>, start <int>, end <int>,
    ## #   DatabaseAccess <chr>, DBseqLength <int>, DatabaseSeq <chr>, DatabaseDescription <chr>, scan.number.s. <dbl>,
    ## #   acquisitionNum <dbl>, spectrumFile <chr>, idFile <chr>, MS.GF.RawScore <dbl>, MS.GF.DeNovoScore <dbl>,
    ## #   MS.GF.SpecEValue <dbl>, MS.GF.EValue <dbl>, MS.GF.QValue <dbl>, MS.GF.PepQValue <dbl>, modPeptideRef <chr>,
    ## #   modName <chr>, modMass <dbl>, modLocation <int>, subOriginalResidue <chr>, subReplacementResidue <chr>,
    ## #   subLocation <int>
…
<p class="solution-begin">&#x25BA; Solution<span id='sol-start-12' class="fa fa-plus-square solution-icon clickable" onclick="toggle_visibility('sol-body-12', 'sol-start-12')"></span></p>

    mltm <-
        id_tbl %>%
        group_by(spectrumID) %>%
        mutate(nProts = length(unique(DatabaseAccess))) %>%
        filter(nProts > 1) %>%
        select(DatabaseAccess, nProts)

    ## Adding missing grouping variables: `spectrumID`

    mltm

    ## # A tibble: 85 × 3
    ## # Groups:   spectrumID [39]
    ##    spectrumID                                    DatabaseAccess nProts
    ##    <chr>                                         <chr>           <int>
    ##  1 controllerType=0 controllerNumber=1 scan=1073 ECA2869             2
    ##  2 controllerType=0 controllerNumber=1 scan=1073 ECA4278             2
    ##  3 controllerType=0 controllerNumber=1 scan=6578 ECA3480             2
    ##  4 controllerType=0 controllerNumber=1 scan=6578 ECA3481             2
    ##  5 controllerType=0 controllerNumber=1 scan=5617 ECA4283             2
    ##  6 controllerType=0 controllerNumber=1 scan=5617 ECA4292             2
    ##  7 controllerType=0 controllerNumber=1 scan=3926 ECA0216             2
    ##  8 controllerType=0 controllerNumber=1 scan=3926 ECA4035             2
    ##  9 controllerType=0 controllerNumber=1 scan=4784 ECA0216             2
    ## 10 controllerType=0 controllerNumber=1 scan=4784 ECA4035             2
    ## # … with 75 more rows

    id_tbl <-
        id_tbl %>%
        filter(!spectrumID %in% mltm$spectrumID)
    id_tbl

    ## # A tibble: 2,666 × 35
    ##    sequence spectrumID chargeState  rank passThreshold experimentalMas… calculatedMassT… peptideRef modNum isDecoy
    ##    <chr>    <chr>            <int> <int> <lgl>                    <dbl>            <dbl> <chr>       <int> <lgl>  
    ##  1 RQCRTDF… controlle…           3     1 TRUE                      548.             548. Pep77           1 FALSE  
    ##  2 ESVALAD… controlle…           2     1 TRUE                     1288.            1288. Pep108          1 FALSE  
    ##  3 QRMARTS… controlle…           3     1 TRUE                      913.             913. Pep163          1 FALSE  
    ##  4 DGGPAIY… controlle…           3     1 TRUE                      969.             969. Pep206          1 FALSE  
    ##  5 QRMARTS… controlle…           2     1 TRUE                     1369.            1369. Pep163          1 FALSE  
    ##  6 CIDRARH… controlle…           3     1 TRUE                     1285.            1285. Pep216          2 FALSE  
    ##  7 CIDRARH… controlle…           3     1 TRUE                     1285.            1285. Pep216          2 FALSE  
    ##  8 VGRCRPI… controlle…           2     1 TRUE                     1102.            1102. Pep223          1 FALSE  
    ##  9 QRLDEHC… controlle…           3     1 TRUE                      713.             712. Pep319          1 FALSE  
    ## 10 VDYQGKK… controlle…           4     1 TRUE                      870.             870. Pep321          1 FALSE  
    ## # … with 2,656 more rows, and 25 more variables: post <chr>, pre <chr>, start <int>, end <int>,
    ## #   DatabaseAccess <chr>, DBseqLength <int>, DatabaseSeq <chr>, DatabaseDescription <chr>, scan.number.s. <dbl>,
    ## #   acquisitionNum <dbl>, spectrumFile <chr>, idFile <chr>, MS.GF.RawScore <dbl>, MS.GF.DeNovoScore <dbl>,
    ## #   MS.GF.SpecEValue <dbl>, MS.GF.EValue <dbl>, MS.GF.QValue <dbl>, MS.GF.PepQValue <dbl>, modPeptideRef <chr>,
    ## #   modName <chr>, modMass <dbl>, modLocation <int>, subOriginalResidue <chr>, subReplacementResidue <chr>,
    ## #   subLocation <int>
…
